hardware solution 29865

wallac alone cells 48069

loa 10bit cells 29219
loa 14bit cells 30495
loa 16bit cells 31157
loa 18bit cells 31768
loa 20bit cells 32419
loa_wal 10 bit 45788
loa_wal 14 bit 46801
loa_wal 16 bit 47306
loa_wal 18 bit 47816
loa_wal 20 bit 48321

simple_shift 10 bit cells 25248
simple_shift 14 bit cells 27312
simple_shift 16 bit cells 28165
simple_shift 18 bit cells 28321
simple_shift 20 bit cells 28971

simple_shift_wal 10 bit cells 44894
simple_shift_wal 14 bit cells 45924
simple_shift_wal 16 bit cells 46432
simple_shift_wal 18 bit cells 46986
simple_shift_wal 20 bit cells 47567


