Design Route Status
                                               :      # nets :
   ------------------------------------------- : ----------- :
   # of logical nets.......................... :         220 :
       # of nets not needing routing.......... :          72 :
           # of internally routed nets........ :          72 :
       # of routable nets..................... :         148 :
           # of fully routed nets............. :         148 :
       # of nets with routing errors.......... :           0 :
   ------------------------------------------- : ----------- :

